(...)
(LAMBDA (A4) (G2 A4))
(LAMBDA (A4) (G3 A4))
(LAMBDA (A4) (G4 (GENSYM) A4))
(LAMBDA (Y A4)
  (CDLL Y
   (G5 A4
    (CONS
     (CONS
      '((LAMBDA (X A) (PFEVAL (CDR X) (PPAIR (CAR X) A) (GOLIST (CDR X) NIL)))
        X)
      (LIST (CONS A4 Y)))
     'NIL))))
(LAMBDA (A4 A6) (LIST 'LAMBDA '(A) (G6 A4 A6)))
(LAMBDA (A4 A6) (G7 A4 A6))
(LAMBDA (A4 A6) (CONS (G8 A4 A6) (G199 A4 A6)))
(LAMBDA (A4 A6)
  (G9 (EVLIS '((CDR X) (GOLIST (CDR X) NIL)) (PAIRLIS '(X) A4 'NIL)) A6))
(LAMBDA (A4 A6)
  (G10
   (STK
    '(LAMBDA (X A G)
       (COND ((NULL X) NIL) ((ATOM (CAR X)) (PFEVAL (CDR X) A G))
             ((EQ (CAAR X) 'GO) (PFEVAL (CDR (ASSOC (CADAR X) G)) A G))
             ((EQ (CAAR X) 'COND) (PFCOND (CONS (CDAR X) (CDR X)) A G))
             ((EQ (CAAR X) 'SETQ)
              (PROG2 (RPLACD (ASSOC (CADAR X) A) (EVAL (CADDR (CAR X)) A))
                  (PFEVAL (CDR X) A G)))
             ((EQ (CAAR X) 'SET)
              (PROG2
                  (RPLACD (ASSOC (EVAL (CADAR X) A) A)
                          (EVAL (CADDR (CAR X)) A))
                  (PFEVAL (CDR X) A G)))
             ((EQ (CAAR X) 'RETURN) (EVAL (CADAR X) A))
             (T (PROG2 (EVAL (CAR X) A) (PFEVAL (CDR X) A G)))))
    '(X G) A6)
   (GENSYM) A4 A6))
(LAMBDA (X Y A4 A6)
  (COND
   ((NULL X)
    (CDLL Y
     (G11 A4
      (CONS
       (CONS
        '((LAMBDA (X A G)
            (COND ((NULL X) NIL) ((ATOM (CAR X)) (PFEVAL (CDR X) A G))
                  ((EQ (CAAR X) 'GO) (PFEVAL (CDR (ASSOC (CADAR X) G)) A G))
                  ((EQ (CAAR X) 'COND) (PFCOND (CONS (CDAR X) (CDR X)) A G))
                  ((EQ (CAAR X) 'SETQ)
                   (PROG2 (RPLACD (ASSOC (CADAR X) A) (EVAL (CADDR (CAR X)) A))
                       (PFEVAL (CDR X) A G)))
                  ((EQ (CAAR X) 'SET)
                   (PROG2
                       (RPLACD (ASSOC (EVAL (CADAR X) A) A)
                               (EVAL (CADDR (CAR X)) A))
                       (PFEVAL (CDR X) A G)))
                  ((EQ (CAAR X) 'RETURN) (EVAL (CADAR X) A))
                  (T (PROG2 (EVAL (CAR X) A) (PFEVAL (CDR X) A G)))))
          X G)
        (LIST (CONS A4 Y)))
       A6))))
   ((NULL (ASSOC A4 (CDR X)))
    (CDLL Y (G11 A4 (PROG2 (NCONC X (LIST (CONS A4 Y))) A6))))
   ('T (CDR (ASSOC A4 (CDR X))))))
(LAMBDA (A4 A6) (LIST 'LAMBDA '(A) (G12 A4 A6)))
(LAMBDA (A4 A6) (G13 A4 A6))
(LAMBDA (A4 A6)
  (COND ((EVAL '(NULL X) (PAIRLIS '(X G) A4 'NIL)) (G14 A4 A6))
        ('T (G15 A4 A6))))
(LAMBDA (A4 A6) (LIST 'QUOTE (EVAL 'NIL (PAIRLIS '(X G) A4 'NIL))))
(LAMBDA (A4 A6)
  (COND ((EVAL '(ATOM (CAR X)) (PAIRLIS '(X G) A4 'NIL)) (G16 A4 A6))
        ('T (G23 A4 A6))))
(LAMBDA (A4 A6) (G17 A4 A6))
(LAMBDA (A4 A6) (CONS (G18 A4 A6) (G20 A4 A6)))
(LAMBDA (A4 A6) (G9 (EVLIS '((CDR X) G) (PAIRLIS '(X G) A4 'NIL)) A6))
NIL
(LAMBDA (A4 A6) (CONS (G21 A4 A6) (G22 A4 A6)))
(LAMBDA (A4 A6) 'A)
(LAMBDA (A4 A6) 'NIL)
(LAMBDA (A4 A6)
  (COND ((EVAL '(EQ (CAAR X) 'GO) (PAIRLIS '(X G) A4 'NIL)) (G24 A4 A6))
        ('T (G31 A4 A6))))
(LAMBDA (A4 A6) (G25 A4 A6))
(LAMBDA (A4 A6) (CONS (G26 A4 A6) (G28 A4 A6)))
(LAMBDA (A4 A6)
  (G9 (EVLIS '((CDR (ASSOC (CADAR X) G)) G) (PAIRLIS '(X G) A4 'NIL)) A6))
NIL
(LAMBDA (A4 A6) (CONS (G21 A4 A6) (G30 A4 A6)))
NIL
(LAMBDA (A4 A6) 'NIL)
(LAMBDA (A4 A6)
  (COND ((EVAL '(EQ (CAAR X) 'COND) (PAIRLIS '(X G) A4 'NIL)) (G32 A4 A6))
        ('T (G141 A4 A6))))
(LAMBDA (A4 A6) (G33 A4 A6))
(LAMBDA (A4 A6) (CONS (G34 A4 A6) (G138 A4 A6)))
(LAMBDA (A4 A6)
  (G35 (EVLIS '((CONS (CDAR X) (CDR X)) G) (PAIRLIS '(X G) A4 'NIL)) A6))
(LAMBDA (A4 A6)
  (G36
   (STK
    '(LAMBDA (Y A G)
       (COND ((NULL (CAR Y)) (PFEVAL (CDR Y) A G))
             ((EVAL (CAAAR Y) A)
              (COND
               ((EQ (CAADR (CAAR Y)) 'GO)
                (PFEVAL (CDR (ASSOC (CADAR (CDAAR Y)) G)) A G))
               ((EQ (CAADR (CAAR Y)) 'SETQ)
                (PROG2
                    (RPLACD (ASSOC (CADAR (CDAAR Y)) A)
                            (EVAL (CADDR (CADAR (CAR Y))) A))
                    (PFEVAL (CDR Y) A G)))
               ((EQ (CAADR (CAAR Y)) 'SET)
                (PROG2
                    (RPLACD (ASSOC (EVAL (CADAR (CDAAR Y)) A) A)
                            (EVAL (CADDR (CADAR (CAR Y))) A))
                    (PFEVAL (CDR Y) A G)))
               ((EQ (CAADR (CAAR Y)) 'RETURN) (EVAL (CADAR (CDAAR Y)) A))
               (T (PROG2 (EVAL (CADAR (CAR Y)) A) (PFEVAL (CDR Y) A G)))))
             (T (PFCOND (CONS (CDAR Y) (CDR Y)) A G))))
    '(Y G) A6)
   (GENSYM) A4 A6))
(LAMBDA (X Y A4 A6)
  (COND
   ((NULL X)
    (CDLL Y
     (G37 A4
      (CONS
       (CONS
        '((LAMBDA (Y A G)
            (COND ((NULL (CAR Y)) (PFEVAL (CDR Y) A G))
                  ((EVAL (CAAAR Y) A)
                   (COND
                    ((EQ (CAADR (CAAR Y)) 'GO)
                     (PFEVAL (CDR (ASSOC (CADAR (CDAAR Y)) G)) A G))
                    ((EQ (CAADR (CAAR Y)) 'SETQ)
                     (PROG2
                         (RPLACD (ASSOC (CADAR (CDAAR Y)) A)
                                 (EVAL (CADDR (CADAR (CAR Y))) A))
                         (PFEVAL (CDR Y) A G)))
                    ((EQ (CAADR (CAAR Y)) 'SET)
                     (PROG2
                         (RPLACD (ASSOC (EVAL (CADAR (CDAAR Y)) A) A)
                                 (EVAL (CADDR (CADAR (CAR Y))) A))
                         (PFEVAL (CDR Y) A G)))
                    ((EQ (CAADR (CAAR Y)) 'RETURN) (EVAL (CADAR (CDAAR Y)) A))
                    (T (PROG2 (EVAL (CADAR (CAR Y)) A) (PFEVAL (CDR Y) A G)))))
                  (T (PFCOND (CONS (CDAR Y) (CDR Y)) A G))))
          Y G)
        (LIST (CONS A4 Y)))
       A6))))
   ((NULL (ASSOC A4 (CDR X)))
    (CDLL Y (G37 A4 (PROG2 (NCONC X (LIST (CONS A4 Y))) A6))))
   ('T (CDR (ASSOC A4 (CDR X))))))
(LAMBDA (A4 A6) (LIST 'LAMBDA '(A) (G38 A4 A6)))
(LAMBDA (A4 A6) (G39 A4 A6))
(LAMBDA (A4 A6)
  (COND ((EVAL '(NULL (CAR Y)) (PAIRLIS '(Y G) A4 'NIL)) (G40 A4 A6))
        ('T (G47 A4 A6))))
(LAMBDA (A4 A6) (G41 A4 A6))
(LAMBDA (A4 A6) (CONS (G42 A4 A6) (G44 A4 A6)))
(LAMBDA (A4 A6) (G9 (EVLIS '((CDR Y) G) (PAIRLIS '(Y G) A4 'NIL)) A6))
NIL
(LAMBDA (A4 A6) (CONS (G45 A4 A6) (G46 A4 A6)))
(LAMBDA (A4 A6) 'A)
(LAMBDA (A4 A6) 'NIL)
(LAMBDA (A4 A6) (CONS 'COND (G48 A4 A6)))
(LAMBDA (A4 A6) (CONS (LIST (G49 A4 A6) (G56 A4 A6)) (G127 A4 A6)))
(LAMBDA (A4 A6) (G50 A4 A6))
(LAMBDA (A4 A6) (CONS 'EVAL (G51 A4 A6)))
(LAMBDA (A4 A6) (CONS (G52 A4 A6) (G53 A4 A6)))
(LAMBDA (A4 A6) (LIST 'QUOTE (EVAL '(CAAAR Y) (PAIRLIS '(Y G) A4 'NIL))))
(LAMBDA (A4 A6) (CONS (G45 A4 A6) (G55 A4 A6)))
NIL
(LAMBDA (A4 A6) 'NIL)
(LAMBDA (A4 A6) (G57 A4 A6))
(LAMBDA (A4 A6)
  (COND
   ((EVAL '(EQ (CAADR (CAAR Y)) 'GO) (PAIRLIS '(Y G) A4 'NIL)) (G58 A4 A6))
   ('T (G66 A4 A6))))
(LAMBDA (A4 A6) (G59 A4 A6))
(LAMBDA (A4 A6) (G60 A4 A6))
(LAMBDA (A4 A6) (CONS (G61 A4 A6) (G63 A4 A6)))
(LAMBDA (A4 A6)
  (G9 (EVLIS '((CDR (ASSOC (CADAR (CDAAR Y)) G)) G) (PAIRLIS '(Y G) A4 'NIL))
   A6))
NIL
(LAMBDA (A4 A6) (CONS (G45 A4 A6) (G65 A4 A6)))
NIL
(LAMBDA (A4 A6) 'NIL)
(LAMBDA (A4 A6)
  (COND
   ((EVAL '(EQ (CAADR (CAAR Y)) 'SETQ) (PAIRLIS '(Y G) A4 'NIL)) (G67 A4 A6))
   ('T (G87 A4 A6))))
(LAMBDA (A4 A6) (G68 A4 A6))
(LAMBDA (A4 A6) (CONS 'PROG2 (G69 A4 A6)))
(LAMBDA (A4 A6) (CONS (G70 A4 A6) (G84 A4 A6)))
(LAMBDA (A4 A6) (CONS 'RPLACD (G71 A4 A6)))
(LAMBDA (A4 A6) (CONS (G72 A4 A6) (G78 A4 A6)))
(LAMBDA (A4 A6) (CONS 'ASSOC (G73 A4 A6)))
(LAMBDA (A4 A6) (CONS (G74 A4 A6) (G75 A4 A6)))
(LAMBDA (A4 A6)
  (LIST 'QUOTE (EVAL '(CADAR (CDAAR Y)) (PAIRLIS '(Y G) A4 'NIL))))
(LAMBDA (A4 A6) (CONS (G45 A4 A6) (G77 A4 A6)))
NIL
(LAMBDA (A4 A6) 'NIL)
(LAMBDA (A4 A6) (CONS (G79 A4 A6) (G77 A4 A6)))
(LAMBDA (A4 A6) (CONS 'EVAL (G80 A4 A6)))
(LAMBDA (A4 A6) (CONS (G81 A4 A6) (G75 A4 A6)))
(LAMBDA (A4 A6)
  (LIST 'QUOTE (EVAL '(CADDR (CADAR (CAR Y))) (PAIRLIS '(Y G) A4 'NIL))))
NIL
NIL
(LAMBDA (A4 A6) (CONS (G40 A4 A6) (G77 A4 A6)))
NIL
NIL
(LAMBDA (A4 A6)
  (COND
   ((EVAL '(EQ (CAADR (CAAR Y)) 'SET) (PAIRLIS '(Y G) A4 'NIL)) (G88 A4 A6))
   ('T (G108 A4 A6))))
(LAMBDA (A4 A6) (G89 A4 A6))
(LAMBDA (A4 A6) (CONS 'PROG2 (G90 A4 A6)))
(LAMBDA (A4 A6) (CONS (G91 A4 A6) (G105 A4 A6)))
(LAMBDA (A4 A6) (CONS 'RPLACD (G92 A4 A6)))
(LAMBDA (A4 A6) (CONS (G93 A4 A6) (G102 A4 A6)))
(LAMBDA (A4 A6) (CONS 'ASSOC (G94 A4 A6)))
(LAMBDA (A4 A6) (CONS (G95 A4 A6) (G98 A4 A6)))
(LAMBDA (A4 A6) (CONS 'EVAL (G96 A4 A6)))
(LAMBDA (A4 A6) (CONS (G74 A4 A6) (G98 A4 A6)))
NIL
(LAMBDA (A4 A6) (CONS (G45 A4 A6) (G100 A4 A6)))
NIL
(LAMBDA (A4 A6) 'NIL)
NIL
(LAMBDA (A4 A6) (CONS (G79 A4 A6) (G100 A4 A6)))
NIL
NIL
(LAMBDA (A4 A6) (CONS (G40 A4 A6) (G100 A4 A6)))
NIL
NIL
(LAMBDA (A4 A6)
  (COND
   ((EVAL '(EQ (CAADR (CAAR Y)) 'RETURN) (PAIRLIS '(Y G) A4 'NIL))
    (G109 A4 A6))
   ('T (G111 A4 A6))))
(LAMBDA (A4 A6) (G95 A4 A6))
NIL
(LAMBDA (A4 A6)
  (COND ((EVAL 'T (PAIRLIS '(Y G) A4 'NIL)) (G112 A4 A6)) ('T (G124 A4 A6))))
(LAMBDA (A4 A6) (G113 A4 A6))
(LAMBDA (A4 A6) (CONS 'PROG2 (G114 A4 A6)))
(LAMBDA (A4 A6) (CONS (G115 A4 A6) (G121 A4 A6)))
(LAMBDA (A4 A6) (CONS 'EVAL (G116 A4 A6)))
(LAMBDA (A4 A6) (CONS (G117 A4 A6) (G118 A4 A6)))
(LAMBDA (A4 A6) (LIST 'QUOTE (EVAL '(CADAR (CAR Y)) (PAIRLIS '(Y G) A4 'NIL))))
(LAMBDA (A4 A6) (CONS (G45 A4 A6) (G120 A4 A6)))
NIL
(LAMBDA (A4 A6) 'NIL)
(LAMBDA (A4 A6) (CONS (G40 A4 A6) (G120 A4 A6)))
NIL
NIL
(LAMBDA (A4 A6)
  (COND ((EVAL 'NIL (PAIRLIS '(Y G) A4 'NIL)) (G125 A4 A6)) ('T (G124 A4 A6))))
(LAMBDA (A4 A6) (LIST 'QUOTE (EVAL 'NIL (PAIRLIS '(Y G) A4 'NIL))))
NIL
(LAMBDA (A4 A6) (LIST (LIST (G128 A4 A6) (G129 A4 A6))))
(LAMBDA (A4 A6) (LIST 'QUOTE (EVAL 'T (PAIRLIS '(Y G) A4 'NIL))))
(LAMBDA (A4 A6) (G130 A4 A6))
(LAMBDA (A4 A6) (G131 A4 A6))
(LAMBDA (A4 A6) (CONS (G132 A4 A6) (G134 A4 A6)))
(LAMBDA (A4 A6)
  (G35 (EVLIS '((CONS (CDAR Y) (CDR Y)) G) (PAIRLIS '(Y G) A4 'NIL)) A6))
NIL
(LAMBDA (A4 A6) (CONS (G45 A4 A6) (G136 A4 A6)))
NIL
(LAMBDA (A4 A6) 'NIL)
NIL
(LAMBDA (A4 A6) (CONS (G21 A4 A6) (G140 A4 A6)))
NIL
(LAMBDA (A4 A6) 'NIL)
(LAMBDA (A4 A6)
  (COND ((EVAL '(EQ (CAAR X) 'SETQ) (PAIRLIS '(X G) A4 'NIL)) (G142 A4 A6))
        ('T (G161 A4 A6))))
(LAMBDA (A4 A6) (CONS 'PROG2 (G143 A4 A6)))
(LAMBDA (A4 A6) (CONS (G144 A4 A6) (G158 A4 A6)))
(LAMBDA (A4 A6) (CONS 'RPLACD (G145 A4 A6)))
(LAMBDA (A4 A6) (CONS (G146 A4 A6) (G152 A4 A6)))
(LAMBDA (A4 A6) (CONS 'ASSOC (G147 A4 A6)))
(LAMBDA (A4 A6) (CONS (G148 A4 A6) (G149 A4 A6)))
(LAMBDA (A4 A6) (LIST 'QUOTE (EVAL '(CADAR X) (PAIRLIS '(X G) A4 'NIL))))
(LAMBDA (A4 A6) (CONS (G21 A4 A6) (G151 A4 A6)))
NIL
(LAMBDA (A4 A6) 'NIL)
(LAMBDA (A4 A6) (CONS (G153 A4 A6) (G151 A4 A6)))
(LAMBDA (A4 A6) (CONS 'EVAL (G154 A4 A6)))
(LAMBDA (A4 A6) (CONS (G155 A4 A6) (G149 A4 A6)))
(LAMBDA (A4 A6) (LIST 'QUOTE (EVAL '(CADDR (CAR X)) (PAIRLIS '(X G) A4 'NIL))))
NIL
NIL
(LAMBDA (A4 A6) (CONS (G16 A4 A6) (G151 A4 A6)))
NIL
NIL
(LAMBDA (A4 A6)
  (COND ((EVAL '(EQ (CAAR X) 'SET) (PAIRLIS '(X G) A4 'NIL)) (G162 A4 A6))
        ('T (G181 A4 A6))))
(LAMBDA (A4 A6) (CONS 'PROG2 (G163 A4 A6)))
(LAMBDA (A4 A6) (CONS (G164 A4 A6) (G178 A4 A6)))
(LAMBDA (A4 A6) (CONS 'RPLACD (G165 A4 A6)))
(LAMBDA (A4 A6) (CONS (G166 A4 A6) (G175 A4 A6)))
(LAMBDA (A4 A6) (CONS 'ASSOC (G167 A4 A6)))
(LAMBDA (A4 A6) (CONS (G168 A4 A6) (G171 A4 A6)))
(LAMBDA (A4 A6) (CONS 'EVAL (G169 A4 A6)))
(LAMBDA (A4 A6) (CONS (G148 A4 A6) (G171 A4 A6)))
NIL
(LAMBDA (A4 A6) (CONS (G21 A4 A6) (G173 A4 A6)))
NIL
(LAMBDA (A4 A6) 'NIL)
NIL
(LAMBDA (A4 A6) (CONS (G153 A4 A6) (G173 A4 A6)))
NIL
NIL
(LAMBDA (A4 A6) (CONS (G16 A4 A6) (G173 A4 A6)))
NIL
NIL
(LAMBDA (A4 A6)
  (COND ((EVAL '(EQ (CAAR X) 'RETURN) (PAIRLIS '(X G) A4 'NIL)) (G168 A4 A6))
        ('T (G183 A4 A6))))
NIL
(LAMBDA (A4 A6)
  (COND ((EVAL 'T (PAIRLIS '(X G) A4 'NIL)) (G184 A4 A6)) ('T (G195 A4 A6))))
(LAMBDA (A4 A6) (CONS 'PROG2 (G185 A4 A6)))
(LAMBDA (A4 A6) (CONS (G186 A4 A6) (G192 A4 A6)))
(LAMBDA (A4 A6) (CONS 'EVAL (G187 A4 A6)))
(LAMBDA (A4 A6) (CONS (G188 A4 A6) (G189 A4 A6)))
(LAMBDA (A4 A6) (LIST 'QUOTE (EVAL '(CAR X) (PAIRLIS '(X G) A4 'NIL))))
(LAMBDA (A4 A6) (CONS (G21 A4 A6) (G191 A4 A6)))
NIL
(LAMBDA (A4 A6) 'NIL)
(LAMBDA (A4 A6) (CONS (G16 A4 A6) (G191 A4 A6)))
NIL
NIL
(LAMBDA (A4 A6)
  (COND ((EVAL 'NIL (PAIRLIS '(X G) A4 'NIL)) (G14 A4 A6)) ('T (G195 A4 A6))))
NIL
NIL
NIL
(LAMBDA (A4 A6) (CONS (G200 A4 A6) (G205 A4 A6)))
(LAMBDA (A4 A6) (CONS 'PPAIR (G201 A4 A6)))
(LAMBDA (A4 A6) (CONS (G202 A4 A6) (G203 A4 A6)))
(LAMBDA (A4 A6) (LIST 'QUOTE (EVAL '(CAR X) (PAIRLIS '(X) A4 'NIL))))
(LAMBDA (A4 A6) (CONS (G204 A4 A6) (G205 A4 A6)))
(LAMBDA (A4 A6) 'A)
(LAMBDA (A4 A6) 'NIL)
NIL
(LAMBDA (A) (G208 (PPAIR '(U) A)))
(LAMBDA (A) (EVAL 'U A))
(LAMBDA (A) (G210 (PPAIR '(U) A)))
(LAMBDA (A) (EVAL 'U A))
(LAMBDA (A) (G212 (PPAIR '(U V) A)))
(LAMBDA (A) (PROG2 (RPLACD (ASSOC 'U A) (EVAL 'N A)) (G213 A)))
(LAMBDA (A) (G214 A))
(LAMBDA (A) (G215 A))
(LAMBDA (A) (COND ((EVAL '(NULL U) A) (EVAL 'V A)) ('T (G216 A))))
(LAMBDA (A) (G217 A))
(LAMBDA (A) (PROG2 (RPLACD (ASSOC 'V A) (EVAL '(CONS (CAR U) V) A)) (G218 A)))
(LAMBDA (A) (PROG2 (RPLACD (ASSOC 'U A) (EVAL '(CDR U) A)) (G219 A)))
(LAMBDA (A) (G214 A))
NIL
(LAMBDA (A) (G222 (PPAIR '(U V) A)))
(LAMBDA (A) (PROG2 (RPLACD (ASSOC 'U A) (EVAL 'N A)) (G223 A)))
(LAMBDA (A) (G224 A))
(LAMBDA (A) (G225 A))
(LAMBDA (A) (COND ((EVAL '(NULL U) A) (EVAL 'V A)) ('T (G226 A))))
(LAMBDA (A) (G227 A))
(LAMBDA (A) (PROG2 (RPLACD (ASSOC 'V A) (EVAL '(CONS (CAR U) V) A)) (G228 A)))
(LAMBDA (A) (PROG2 (RPLACD (ASSOC 'U A) (EVAL '(CDR U) A)) (G229 A)))
(LAMBDA (A) (G224 A))
NIL
(LAMBDA (A) (G232 (PPAIR '(U V) A)))
(LAMBDA (A) (PROG2 (RPLACD (ASSOC 'U A) (EVAL '1 A)) (G233 A)))
(LAMBDA (A) (PROG2 (RPLACD (ASSOC 'V A) (EVAL 'N A)) (G234 A)))
(LAMBDA (A) (G235 A))
(LAMBDA (A) (G236 A))
(LAMBDA (A) (COND ((EVAL '(ZEROP V) A) (EVAL 'U A)) ('T (G237 A))))
(LAMBDA (A) (G238 A))
(LAMBDA (A) (PROG2 (RPLACD (ASSOC 'U A) (EVAL '(TIMES U V) A)) (G239 A)))
(LAMBDA (A) (PROG2 (RPLACD (ASSOC 'V A) (EVAL '(SUB1 V) A)) (G240 A)))
(LAMBDA (A) (G235 A))
NIL
(LAMBDA (A) (G243 (PPAIR '(U V) A)))
(LAMBDA (A) (PROG2 (RPLACD (ASSOC 'U A) (EVAL '1 A)) (G244 A)))
(LAMBDA (A) (PROG2 (RPLACD (ASSOC 'V A) (EVAL 'N A)) (G245 A)))
(LAMBDA (A) (G246 A))
(LAMBDA (A) (G247 A))
(LAMBDA (A) (COND ((EVAL '(ZEROP V) A) (EVAL 'U A)) ('T (G248 A))))
(LAMBDA (A) (G249 A))
(LAMBDA (A) (PROG2 (RPLACD (ASSOC 'U A) (EVAL '(TIMES U V) A)) (G250 A)))
(LAMBDA (A) (PROG2 (RPLACD (ASSOC 'V A) (EVAL '(SUB1 V) A)) (G251 A)))
(LAMBDA (A) (G246 A))
NIL
(...)
